<svg width="61" height="60" viewBox="0 0 61 60" fill="none" xmlns="http://www.w3.org/2000/svg">
<g clip-path="url(#clip0)">
<path d="M33.8847 60H8.04965C5.3827 60 3.2207 57.838 3.2207 55.1711V4.82895C3.2207 2.16199 5.3827 0 8.04965 0H33.8847C36.5516 0 38.7136 2.16199 38.7136 4.82895V55.1711C38.7136 57.838 36.5516 60 33.8847 60Z" fill="#7B727B"/>
<path d="M33.8854 0H30.2637C32.9306 0 35.0926 2.16199 35.0926 4.82895V55.1711C35.0926 57.838 32.9306 60 30.2637 60H33.8854C36.5523 60 38.7143 57.838 38.7143 55.1711V4.82895C38.7143 2.16199 36.5523 0 33.8854 0V0Z" fill="#686169"/>
<path d="M35.5748 4.82887V55.171C35.5748 56.1044 34.8181 56.8612 33.8846 56.8612H8.04957C7.11617 56.8612 6.35938 56.1045 6.35938 55.171V4.82887C6.35938 3.89547 7.11606 3.13867 8.04957 3.13867H12.8911C13.1725 3.13867 13.4229 3.31727 13.5145 3.5834L14.1525 5.43684C14.2441 5.70297 14.4944 5.88156 14.7759 5.88156H27.1584C27.4399 5.88156 27.6902 5.70297 27.7818 5.43684L28.4198 3.5834C28.5115 3.31727 28.7618 3.13867 29.0433 3.13867H33.8847C34.818 3.13879 35.5748 3.89547 35.5748 4.82887Z" fill="#D6FAEC"/>
<path d="M33.8854 3.13867H30.2637C31.1971 3.13867 31.9539 3.89535 31.9539 4.82887V55.171C31.9539 56.1044 31.1972 56.8612 30.2637 56.8612H33.8854C34.8187 56.8612 35.5755 56.1045 35.5755 55.171V4.82875C35.5755 3.89535 34.8187 3.13867 33.8854 3.13867Z" fill="#CCFAE8"/>
<path d="M25.6763 49.0744H16.2598C14.8597 49.0744 13.7246 47.9393 13.7246 46.5391C13.7246 45.139 14.8597 44.0039 16.2598 44.0039H25.6763C27.0765 44.0039 28.2116 45.139 28.2116 46.5391C28.2116 47.9393 27.0765 49.0744 25.6763 49.0744Z" fill="#2FD9E7"/>
<path d="M55.418 38.5715H13.7996C12.4907 38.5715 11.4297 37.5105 11.4297 36.2017V11.9675C11.4297 10.6587 12.4907 9.59766 13.7996 9.59766H55.4179C56.7267 9.59766 57.7878 10.6587 57.7878 11.9675V36.2017C57.7879 37.5105 56.7269 38.5715 55.418 38.5715Z" fill="#2FD9E7"/>
<path d="M55.4186 9.59766H51.7969C53.1057 9.59766 54.1668 10.6587 54.1668 11.9675V36.2017C54.1668 37.5105 53.1057 38.5715 51.7969 38.5715H55.4186C56.7274 38.5715 57.7884 37.5105 57.7884 36.2017V11.9675C57.7884 10.6588 56.7274 9.59766 55.4186 9.59766Z" fill="#00D0E4"/>
<path d="M45.5714 27.2408C45.5684 27.2329 45.5653 27.225 45.5621 27.2171C45.4016 26.8265 45.0252 26.5742 44.6028 26.5742H44.6024C44.1799 26.5743 43.8032 26.8271 43.6429 27.218C43.6402 27.2248 43.6374 27.2316 43.6349 27.2387L41.0129 34.123C40.84 34.5765 41.0679 35.0843 41.5215 35.2571C41.6244 35.2964 41.7301 35.3149 41.8341 35.3149C42.1882 35.3149 42.522 35.0993 42.6556 34.7485L43.093 33.6001H46.0924L46.5249 34.7461C46.6963 35.2002 47.2034 35.4295 47.6575 35.2579C48.1116 35.0866 48.3409 34.5795 48.1694 34.1253L45.5714 27.2408ZM43.7626 31.8423L44.5998 29.6443L45.4292 31.8423H43.7626Z" fill="#F8F7F7"/>
<path d="M53.3792 26.7344C52.9724 26.4695 52.4279 26.5848 52.1631 26.9914L50.6865 29.2598L49.193 26.9727C48.9276 26.5661 48.3829 26.452 47.9766 26.7173C47.5702 26.9827 47.4558 27.5272 47.7212 27.9337L49.808 31.1295L49.7998 34.4336C49.7987 34.9192 50.1912 35.3136 50.6765 35.3148H50.6787C51.1632 35.3148 51.5565 34.9227 51.5576 34.4381L51.5658 31.1309L53.6362 27.9505C53.901 27.5436 53.786 26.9991 53.3792 26.7344Z" fill="#F8F7F7"/>
<path d="M38.7177 26.5742H36.7734C36.5399 26.5742 36.3159 26.6673 36.1509 26.8326C35.9861 26.9981 35.8937 27.2224 35.8945 27.4559V34.4357C35.8945 34.9212 36.2879 35.3146 36.7734 35.3146C37.259 35.3146 37.6523 34.9212 37.6523 34.4357V32.2769C38.0419 32.2749 38.4698 32.273 38.7177 32.273C40.3102 32.273 41.6058 30.9948 41.6058 29.4236C41.6058 27.8525 40.3102 26.5742 38.7177 26.5742ZM38.7177 30.5151C38.4715 30.5151 38.0489 30.517 37.6611 30.5189C37.659 30.1176 37.6573 29.6765 37.6573 29.4234C37.6573 29.2088 37.6561 28.752 37.6549 28.3319H38.7176C39.3302 28.3319 39.8479 28.8318 39.8479 29.4234C39.848 30.0153 39.3304 30.5151 38.7177 30.5151Z" fill="#F8F7F7"/>
<path d="M25.0725 20.5833H17.5876C17.1875 20.5833 16.8633 20.259 16.8633 19.8589V15.03C16.8633 14.6299 17.1875 14.3057 17.5876 14.3057H25.0725C25.4726 14.3057 25.7968 14.6299 25.7968 15.03V19.8589C25.7968 20.259 25.4726 20.5833 25.0725 20.5833Z" fill="#FFE589"/>
<path d="M22.0534 34.0833H11.4297V27.8057H22.0534C23.787 27.8057 25.1923 29.211 25.1923 30.9445C25.1923 32.678 23.787 34.0833 22.0534 34.0833Z" fill="#FF6167"/>
<path d="M33.5723 15.6084C33.0868 15.6084 32.6934 16.0018 32.6934 16.4873V17.936C32.6934 18.4215 33.0868 18.8149 33.5723 18.8149C34.0578 18.8149 34.4512 18.4215 34.4512 17.936V16.4873C34.4512 16.0019 34.0577 15.6084 33.5723 15.6084Z" fill="#F8F7F7"/>
<path d="M48.5059 15.6084C48.0204 15.6084 47.627 16.0018 47.627 16.4873V17.936C47.627 18.4215 48.0204 18.8149 48.5059 18.8149C48.9914 18.8149 49.3848 18.4215 49.3848 17.936V16.4873C49.3848 16.0019 48.9914 15.6084 48.5059 15.6084Z" fill="#F8F7F7"/>
<path d="M51.7344 15.6084C51.2489 15.6084 50.8555 16.0018 50.8555 16.4873V17.936C50.8555 18.4215 51.2489 18.8149 51.7344 18.8149C52.2199 18.8149 52.6133 18.4215 52.6133 17.936V16.4873C52.6133 16.0019 52.2199 15.6084 51.7344 15.6084Z" fill="#F8F7F7"/>
<path d="M38.2578 15.6084C37.7723 15.6084 37.3789 16.0018 37.3789 16.4873V17.936C37.3789 18.4215 37.7723 18.8149 38.2578 18.8149C38.7433 18.8149 39.1367 18.4215 39.1367 17.936V16.4873C39.1367 16.0019 38.7433 15.6084 38.2578 15.6084Z" fill="#F8F7F7"/>
<path d="M41.6797 15.6084C41.1942 15.6084 40.8008 16.0018 40.8008 16.4873V17.936C40.8008 18.4215 41.1942 18.8149 41.6797 18.8149C42.1652 18.8149 42.5586 18.4215 42.5586 17.936V16.4873C42.5586 16.0019 42.1651 15.6084 41.6797 15.6084Z" fill="#F8F7F7"/>
</g>
<defs>
<clipPath id="clip0">
<rect width="60" height="60" fill="white" transform="translate(0.503906)"/>
</clipPath>
</defs>
</svg>
