<svg width="61" height="58" viewBox="0 0 61 58" fill="none" xmlns="http://www.w3.org/2000/svg">
<path d="M37.5507 53.2192V28.2342C37.1141 28.4713 36.6107 28.6071 36.0743 28.6071C34.4069 28.6071 33.0551 27.3004 33.0551 25.6886V24.506C33.0551 22.9561 31.7554 21.6997 30.152 21.6997C28.5487 21.6997 27.2489 22.9561 27.2489 24.506V29.1162C27.2489 30.5421 26.0532 31.698 24.5781 31.698C24.1749 31.698 23.7929 31.6111 23.4502 31.4565V53.2192H37.5507Z" fill="#287CA1"/>
<path d="M27.8855 11.6697C29.3292 13.0652 31.6698 13.0652 33.1135 11.6697C34.2375 10.5832 34.5171 8.92373 33.808 7.54861L30.4995 1.13281L27.1911 7.54872C26.482 8.92384 26.7616 10.5832 27.8855 11.6697Z" fill="#F4C14F"/>
<path d="M24.5779 31.698C26.053 31.698 27.2487 30.5421 27.2487 29.1163V24.506C27.2487 22.9561 28.5485 21.6997 30.1518 21.6997C31.7552 21.6997 33.0549 22.9561 33.0549 24.506V25.6886C33.0549 27.3005 34.4067 28.6072 36.0741 28.6072C36.6105 28.6072 37.1139 28.4713 37.5505 28.2342C38.471 27.7343 39.0934 26.782 39.0934 25.6886V19.0989C39.0934 17.1127 37.4277 15.5026 35.373 15.5026H32.8228H27.2489H25.6276C23.5729 15.5026 21.9072 17.1127 21.9072 19.0989V29.1163C21.9072 30.1524 22.539 31.0454 23.4501 31.4565C23.7927 31.6112 24.1747 31.698 24.5779 31.698Z" fill="#F4DAAB"/>
<path d="M22.5308 53.2192C21.4167 53.2192 20.5137 54.0922 20.5137 55.1691V56.8672H40.4868V55.1691C40.4868 54.0921 39.5836 53.2192 38.4696 53.2192H37.5505H23.4499H22.5308Z" fill="#C7E1F0"/>
<path d="M19.3418 55.1691V55.7344H16.5654C15.9182 55.7344 15.3936 56.2416 15.3936 56.8672C15.3936 57.4927 15.9182 58 16.5654 58H20.5136H40.4867H44.4348C45.0821 58 45.6067 57.4927 45.6067 56.8672C45.6067 56.2416 45.0821 55.7344 44.4348 55.7344H41.6586V55.1691C41.6586 53.5517 40.3628 52.222 38.7222 52.0969V28.826C39.6631 28.0824 40.2651 26.9523 40.2651 25.6887V19.0989C40.2651 16.4911 38.0704 14.3697 35.3729 14.3697H31.6721V13.7124C32.5244 13.5097 33.3063 13.0861 33.9428 12.4708C35.425 11.0379 35.7926 8.85678 34.8575 7.04338L31.5491 0.627465C31.3507 0.242988 30.9446 0 30.5002 0C30.0558 0 29.6497 0.242988 29.4514 0.627465L26.1429 7.04326C25.2078 8.85678 25.5753 11.0379 27.0576 12.4708C27.6941 13.0861 28.476 13.5097 29.3283 13.7124V14.3697H25.6274C22.9298 14.3697 20.7352 16.4913 20.7352 19.0989V29.1163C20.7352 30.3316 21.342 31.4123 22.2781 32.0904V52.097C20.6375 52.222 19.3418 53.5516 19.3418 55.1691ZM28.715 10.8687C27.9462 10.1255 27.7556 8.99442 28.2406 8.05396L30.5002 3.67201L32.7598 8.05418C33.2448 8.99453 33.0542 10.1256 32.2854 10.8688C32.1022 11.0459 31.8952 11.1918 31.6721 11.3052V10.9845C31.6721 10.359 31.1474 9.85173 30.5002 9.85173C29.853 9.85173 29.3283 10.359 29.3283 10.9845V11.3052C29.1052 11.1917 28.8982 11.0459 28.715 10.8687ZM23.0789 19.0989C23.0789 17.7405 24.2222 16.6354 25.6274 16.6354H29.3283H31.6721H35.373C36.7782 16.6354 37.9214 17.7405 37.9214 19.0989V25.6887C37.9214 26.5729 37.2525 27.307 36.3786 27.448C36.2793 27.4641 36.1781 27.4744 36.0741 27.4744C35.0555 27.4744 34.2268 26.6734 34.2268 25.6887V24.5061C34.2268 22.3341 32.3988 20.5671 30.1518 20.5671C27.9048 20.5671 26.0768 22.3342 26.0768 24.5061V29.1163C26.0768 29.9009 25.428 30.5404 24.6218 30.5632C24.6071 30.5636 24.5928 30.5653 24.5779 30.5653C23.7514 30.5653 23.0789 29.9153 23.0789 29.1163V19.0989ZM36.0741 29.74C36.1765 29.74 36.2779 29.7352 36.3786 29.7282V52.0864H24.6218V32.8298C26.7204 32.8068 28.4206 31.1503 28.4206 29.1163V24.5061C28.4206 23.5833 29.1972 22.8327 30.1518 22.8327C31.1064 22.8327 31.883 23.5835 31.883 24.5061V25.6887C31.883 27.9225 33.7632 29.74 36.0741 29.74ZM22.5309 54.352H23.4501H37.5504H38.4697C38.9357 54.352 39.3149 54.7185 39.3149 55.1691V55.7344H21.6856V55.1691C21.6856 54.7185 22.0648 54.352 22.5309 54.352Z" fill="#333333"/>
<path d="M33.9648 44.2212C34.6121 44.2212 35.1367 43.7139 35.1367 43.0884V32.4611C35.1367 31.8356 34.6121 31.3283 33.9648 31.3283C33.3176 31.3283 32.793 31.8356 32.793 32.4611V43.0884C32.793 43.714 33.3177 44.2212 33.9648 44.2212Z" fill="#333333"/>
<path d="M32.8822 48.012C32.9115 48.08 32.9479 48.1457 32.99 48.2068C33.0322 48.2691 33.0814 48.3269 33.1354 48.379C33.3545 48.5909 33.6557 48.711 33.9639 48.711C34.2732 48.711 34.5744 48.5909 34.7936 48.379C34.8475 48.3269 34.8955 48.2691 34.9389 48.2068C34.9811 48.1457 35.0174 48.08 35.0467 48.012C35.076 47.9429 35.0982 47.8715 35.1135 47.8001C35.1287 47.7265 35.1369 47.6516 35.1369 47.5781C35.1369 47.2802 35.0115 46.9879 34.7936 46.7772C34.5205 46.5144 34.1162 46.3932 33.7354 46.4681C33.6604 46.4828 33.5865 46.5042 33.5162 46.5325C33.4459 46.5608 33.3779 46.5961 33.3135 46.6367C33.2502 46.6775 33.1893 46.7251 33.1354 46.7772C32.9174 46.9879 32.792 47.2802 32.792 47.5781C32.792 47.6516 32.8002 47.7265 32.8154 47.8001C32.8308 47.8715 32.8529 47.9429 32.8822 48.012Z" fill="#333333"/>
</svg>
