<svg width="224" height="226" viewBox="0 0 224 226" fill="none" xmlns="http://www.w3.org/2000/svg">
<g clip-path="url(#clip0)">
<path d="M54.9023 148.576V196.349H74.3085V162.028C66.945 158.924 60.3475 154.311 54.9023 148.576Z" fill="#FFE3AA"/>
<path d="M54.9023 148.576V196.349H63.6523V156.124C60.4914 153.905 57.5593 151.374 54.9023 148.576Z" fill="#287CA1"/>
<path d="M154.522 166.46H151.21V196.349H170.616V164.119C165.505 165.64 160.104 166.46 154.522 166.46Z" fill="#FFE3AA"/>
<path d="M154.522 166.46H151.21V196.349H159.96V166.194C158.169 166.366 156.356 166.46 154.522 166.46Z" fill="#287CA1"/>
<path d="M154.521 50.8491H104.236V65.1948L104.271 65.2782C106.183 69.7647 107.408 74.5072 107.91 79.3741C108.067 80.8987 108.667 82.2865 109.643 83.3874C113.953 88.2459 116.23 93.7379 116.23 99.2687C116.23 117.927 90.9939 133.106 59.9743 133.106C54.32 133.106 48.8596 132.6 43.708 131.662C50.9841 148.441 65.9466 161.131 84.0368 165.131C86.0528 165.576 87.4978 167.362 87.4978 169.444V196.349H106.904V170.874C106.904 168.436 108.863 166.46 111.279 166.46H154.521C162.74 166.46 170.568 164.689 177.65 161.508C180.545 160.208 183.806 162.34 183.806 165.536V196.349H203.212V142.583C203.212 140.364 203.767 138.181 204.823 136.234C209.276 128.025 211.815 118.625 211.815 108.655C211.815 76.8616 186.032 50.8491 154.521 50.8491Z" fill="#F4C14F"/>
<path d="M87.4981 182.938H96.2481V160.616C96.2481 158.534 94.8026 156.748 92.7871 156.302C78.7892 153.208 66.6683 144.906 58.5277 133.536C53.4689 133.46 48.5759 132.98 43.9297 132.153C51.2832 148.687 66.1245 161.171 84.0371 165.13C86.0531 165.576 87.4981 167.361 87.4981 169.444V182.938Z" fill="#287CA1"/>
<path d="M104.674 65.1038V34.0668C104.674 31.4404 102.413 29.3981 99.8239 29.6757C90.4373 30.6825 83.6027 34.5682 78.6865 39.1664C90.3363 44.0704 99.6909 53.4141 104.674 65.1038Z" fill="#287CA1"/>
<path d="M87.0161 43.6837C91.4445 40.0854 97.212 37.1438 104.674 36.0567V34.0668C104.674 31.4404 102.413 29.3981 99.8239 29.6757C90.4373 30.6825 83.6027 34.5682 78.6865 39.1664C81.62 40.4014 84.4068 41.919 87.0161 43.6837Z" fill="#F4C14F"/>
<path d="M41.2625 39.1664C36.3458 34.5678 29.5112 30.6825 20.1251 29.6757C17.5364 29.3981 15.2754 31.4404 15.2754 34.0668V65.1038C20.2576 53.4141 29.6127 44.0704 41.2625 39.1664Z" fill="#F4C14F"/>
<path d="M41.2625 39.1664C36.3458 34.5678 29.5112 30.6825 20.1251 29.6757C17.5364 29.3981 15.2754 31.4404 15.2754 34.0668V65.1038C20.2576 53.4141 29.6127 44.0704 41.2625 39.1664Z" fill="#F4C14F"/>
<path d="M23.7336 34.0669C23.7336 32.6491 24.3955 31.4061 25.4092 30.6014C23.7436 30.1922 21.9866 29.8753 20.1251 29.6753C17.5364 29.3977 15.2754 31.4401 15.2754 34.0664V65.1035C17.3715 60.1853 20.2445 55.6847 23.7336 51.7531V34.0669Z" fill="#287CA1"/>
<path d="M109.97 83.0925C109.042 82.0468 108.49 80.7235 108.346 79.3282C105.796 54.6452 85.1139 35.4017 59.9747 35.4017C34.8355 35.4017 14.1536 54.6452 11.6034 79.3282C11.459 80.7239 10.9064 82.0473 9.97937 83.0925C5.70587 87.9109 3.28125 93.4188 3.28125 99.2687C3.28125 118.201 28.6637 133.548 59.9747 133.548C91.2857 133.548 116.668 118.201 116.668 99.2687C116.668 93.4183 114.243 87.9109 109.97 83.0925Z" fill="#FFE3AA"/>
<path d="M16.4063 99.2687C16.4063 93.4188 18.8309 87.9113 23.1044 83.0929C24.0319 82.0473 24.5844 80.7239 24.7284 79.3286C27.0524 56.831 44.4408 38.8557 66.5368 35.8479C64.3904 35.5557 62.2003 35.4021 59.9743 35.4021C34.8351 35.4021 14.1531 54.6456 11.6034 79.3286C11.459 80.7244 10.9064 82.0477 9.97938 83.0929C5.70588 87.9109 3.28125 93.4188 3.28125 99.2687C3.28125 118.201 28.6637 133.548 59.9747 133.548C62.1946 133.548 64.3838 133.468 66.5372 133.318C38.3184 131.351 16.4063 116.858 16.4063 99.2687Z" fill="#287CA1"/>
<path d="M69.6294 115.332H50.3203C43.5828 115.332 38.0703 109.77 38.0703 102.973V101.838C38.0703 95.0405 43.5828 89.4788 50.3203 89.4788H69.6294C76.3669 89.4788 81.8794 95.0405 81.8794 101.838V102.973C81.8794 109.77 76.3669 115.332 69.6294 115.332Z" fill="#F4C14F"/>
<path d="M46.8203 102.973V101.838C46.8203 95.0405 52.3328 89.4788 59.0703 89.4788H50.3203C43.5828 89.4788 38.0703 95.0405 38.0703 101.838V102.973C38.0703 109.77 43.5828 115.332 50.3203 115.332H59.0703C52.3328 115.332 46.8203 109.77 46.8203 102.973Z" fill="#287CA1"/>
<path d="M54.9023 182.938H74.3085V196.349H54.9023V182.938Z" fill="#F4C14F"/>
<path d="M54.9023 182.938H63.6523V196.349H54.9023V182.938Z" fill="#287CA1"/>
<path d="M151.21 182.938H170.616V196.349H151.21V182.938Z" fill="#F4C14F"/>
<path d="M151.21 182.938H159.96V196.349H151.21V182.938Z" fill="#287CA1"/>
<path d="M87.498 182.938H106.904V196.349H87.498V182.938Z" fill="#FFE3AA"/>
<path d="M87.498 182.938H96.248V196.349H87.498V182.938Z" fill="#287CA1"/>
<path d="M183.807 182.938H203.213V196.349H183.807V182.938Z" fill="#FFE3AA"/>
<path d="M183.807 182.938H192.557V196.349H183.807V182.938Z" fill="#287CA1"/>
<path d="M142.187 54.1597H154.521C168.885 54.1597 182.431 59.8459 192.665 70.1704C202.898 80.4948 208.533 94.1621 208.533 108.654C208.533 117.712 206.255 126.699 201.945 134.644C200.627 137.073 199.93 139.819 199.93 142.583V154.819C199.93 156.647 201.399 158.129 203.212 158.129C205.024 158.129 206.493 156.647 206.493 154.819V142.583C206.493 140.926 206.911 139.28 207.701 137.823C212.539 128.906 215.096 118.819 215.096 108.654C215.096 95.447 210.921 83.206 203.835 73.2015H204.05C215.05 73.2015 224 64.1721 224 53.0734C224 41.9747 215.05 32.9453 204.05 32.9453H188.122C186.309 32.9453 184.841 34.4275 184.841 36.2558C184.841 38.0841 186.309 39.5663 188.122 39.5663H204.05C211.432 39.5663 217.437 45.6255 217.437 53.0734C217.437 60.5212 211.432 66.5804 204.05 66.5804H198.416C187.373 54.8575 171.779 47.5381 154.521 47.5381H142.187C140.375 47.5381 138.906 49.0204 138.906 50.8487C138.906 52.677 140.375 54.1597 142.187 54.1597Z" fill="#333333"/>
<path d="M34.7891 101.838V102.972C34.7891 111.613 41.7562 118.642 50.3203 118.642H69.6298C78.1939 118.642 85.1611 111.613 85.1611 102.972V101.838C85.1611 93.1976 78.1939 86.1682 69.6298 86.1682H50.3203C41.7558 86.1682 34.7891 93.198 34.7891 101.838ZM41.3516 101.838C41.3516 96.8485 45.3748 92.7893 50.3203 92.7893H69.6298C74.5753 92.7893 78.5986 96.8485 78.5986 101.838V102.972C78.5986 107.962 74.5753 112.021 69.6298 112.021H50.3203C45.3748 112.021 41.3516 107.962 41.3516 102.972V101.838Z" fill="#333333"/>
<path d="M52.5654 107.481C54.378 107.481 55.8467 105.998 55.8467 104.17V100.183C55.8467 98.355 54.378 96.8728 52.5654 96.8728C50.7529 96.8728 49.2842 98.355 49.2842 100.183V104.17C49.2842 105.998 50.7533 107.481 52.5654 107.481Z" fill="#333333"/>
<path d="M67.3828 107.481C69.1954 107.481 70.6641 105.998 70.6641 104.17V100.183C70.6641 98.355 69.1954 96.8728 67.3828 96.8728C65.5702 96.8728 64.1016 98.355 64.1016 100.183V104.17C64.1016 105.998 65.5702 107.481 67.3828 107.481Z" fill="#333333"/>
<path d="M46.9307 76.6026V69.115C46.9307 67.2867 45.462 65.8044 43.6494 65.8044C41.8369 65.8044 40.3682 67.2867 40.3682 69.115V76.6026C40.3682 78.4309 41.8369 79.9131 43.6494 79.9131C45.462 79.9131 46.9307 78.4309 46.9307 76.6026Z" fill="#333333"/>
<path d="M79.5801 76.6026V69.115C79.5801 67.2867 78.1114 65.8044 76.2988 65.8044C74.4863 65.8044 73.0176 67.2867 73.0176 69.115V76.6026C73.0176 78.4309 74.4863 79.9131 76.2988 79.9131C78.1114 79.9131 79.5801 78.4309 79.5801 76.6026Z" fill="#333333"/>
<path d="M220.719 193.038H206.493V170.489C206.493 168.661 205.025 167.179 203.212 167.179C201.4 167.179 199.931 168.661 199.931 170.489V179.627H187.088V165.536C187.088 162.911 185.785 160.49 183.604 159.062C181.422 157.631 178.696 157.415 176.317 158.484C169.423 161.58 162.089 163.15 154.521 163.15H111.28C107.058 163.15 103.624 166.615 103.624 170.875V179.628H90.7799V169.445C90.7799 165.787 88.2962 162.684 84.7398 161.897C69.7707 158.588 57.302 149.018 49.8181 136.32C53.1436 136.67 56.5355 136.858 59.9751 136.858C72.2636 136.858 84.0586 134.579 94.0857 130.267C95.7526 129.55 96.5278 127.605 95.8173 125.924C95.1064 124.242 93.1814 123.459 91.5119 124.176C82.292 128.142 71.3864 130.238 59.9751 130.238C45.4173 130.238 31.7796 126.839 21.5736 120.669C11.8934 114.815 6.5625 107.215 6.5625 99.2687C6.5625 94.3859 8.53475 89.6863 12.4237 85.3004C13.8018 83.7471 14.6466 81.801 14.8671 79.6712C16.0226 68.4877 21.2266 58.1495 29.5216 50.5613C37.8744 42.9201 48.6894 38.7122 59.9743 38.7122C71.2591 38.7122 82.0741 42.9201 90.4264 50.5613C98.7214 58.1495 103.925 68.4877 105.081 79.6721C105.301 81.801 106.146 83.7471 107.524 85.3C111.414 89.6858 113.386 94.3855 113.386 99.2687C113.386 105.373 110.222 111.317 104.237 116.458C102.857 117.644 102.69 119.733 103.865 121.125C105.039 122.518 107.11 122.685 108.49 121.5C115.986 115.062 119.948 107.375 119.948 99.2687C119.948 92.7995 117.342 86.4428 112.413 80.8851C111.962 80.3761 111.683 79.7189 111.608 78.9852C111.087 73.9422 109.844 69.0514 107.953 64.4427V54.1597H126.438C128.25 54.1597 129.719 52.6774 129.719 50.8491C129.719 49.0208 128.25 47.5386 126.438 47.5386H107.955V34.0669C107.955 31.8801 107.03 29.7874 105.418 28.3246C103.803 26.8596 101.636 26.152 99.477 26.3837C91.2905 27.2621 84.0263 30.3268 78.0325 35.3566C72.3083 33.2149 66.2047 32.0916 59.9747 32.0916C53.7447 32.0916 47.6407 33.2154 41.9164 35.3566C35.9231 30.3268 28.6584 27.2617 20.4724 26.3837C18.3151 26.1529 16.1459 26.8591 14.5316 28.3246C12.9189 29.787 11.9945 31.8801 11.9945 34.0669V64.4413C10.1032 69.0501 8.86069 73.9413 8.33963 78.9844C8.26394 79.7193 7.98481 80.3761 7.53375 80.8851C2.60531 86.4428 0 92.7995 0 99.2687C0 109.634 6.46319 119.251 18.2 126.347C24.9213 130.411 32.9516 133.37 41.6907 135.097C43.7434 139.391 46.291 143.46 49.3124 147.194C50.0566 148.114 50.8279 149.009 51.6211 149.881V193.038H35.5114C33.6989 193.038 32.2302 194.52 32.2302 196.349C32.2302 198.177 33.6989 199.659 35.5114 199.659H220.719C222.531 199.659 224 198.177 224 196.349C224 194.52 222.531 193.038 220.719 193.038ZM100.171 32.9678C100.601 32.9214 100.893 33.1236 101.03 33.2481C101.165 33.3708 101.392 33.6405 101.392 34.0669V52.8858C99.4486 50.2952 97.2576 47.8727 94.8351 45.6564C91.7713 42.8535 88.417 40.4567 84.8496 38.4897C88.8606 35.7486 93.8897 33.6413 100.171 32.9678ZM18.557 34.0669C18.557 33.6405 18.7841 33.3708 18.9193 33.2481C19.0426 33.1359 19.2933 32.9611 19.6551 32.9611C19.6949 32.9611 19.7365 32.9633 19.7785 32.9678C25.5693 33.5888 30.702 35.4352 35.1409 38.4672C31.5582 40.4381 28.1899 42.8425 25.1143 45.6564C22.6918 47.8727 20.5012 50.2947 18.5574 52.8853V34.0669H18.557ZM71.0268 193.038H58.1831V186.248H71.0264V193.038H71.0268ZM71.0268 179.627H58.1831V156.106C62.1228 159.326 66.4422 162.041 71.0264 164.179V179.627H71.0268ZM84.217 193.038H77.5893V166.782C79.4749 167.404 81.3916 167.935 83.335 168.364C83.8548 168.479 84.2174 168.923 84.2174 169.444V193.038H84.217ZM103.624 193.038H90.7799V186.248H103.624V193.038ZM147.928 193.038H110.186V170.874C110.186 170.265 110.676 169.77 111.279 169.77H147.928V193.038ZM167.335 193.038H154.491V186.248H167.335V193.038ZM167.335 179.627H154.491V169.77H154.521C158.872 169.77 163.153 169.304 167.335 168.386V179.627ZM180.525 193.038H173.897V166.541C175.614 165.95 177.312 165.283 178.986 164.532C179.46 164.319 179.844 164.492 180.03 164.614C180.215 164.735 180.526 165.016 180.526 165.536V193.038H180.525ZM199.931 193.038H187.088V186.248H199.931V193.038Z" fill="#333333"/>
</g>
<defs>
<clipPath id="clip0">
<rect width="224" height="226" fill="white"/>
</clipPath>
</defs>
</svg>
