<svg width="24" height="18" viewBox="0 0 24 18" fill="none" xmlns="http://www.w3.org/2000/svg">
<path d="M15.5824 1V3.28571V1ZM15.5824 7.85714V10.1429V7.85714ZM15.5824 14.7143V17V14.7143ZM3.4304 1C2.78582 1 2.16764 1.24082 1.71185 1.66947C1.25606 2.09812 1 2.67951 1 3.28571V6.71429C1.64458 6.71429 2.26277 6.9551 2.71856 7.38376C3.17434 7.81241 3.4304 8.39379 3.4304 9C3.4304 9.60621 3.17434 10.1876 2.71856 10.6162C2.26277 11.0449 1.64458 11.2857 1 11.2857V14.7143C1 15.3205 1.25606 15.9019 1.71185 16.3305C2.16764 16.7592 2.78582 17 3.4304 17H20.4432C21.0878 17 21.706 16.7592 22.1618 16.3305C22.6176 15.9019 22.8736 15.3205 22.8736 14.7143V11.2857C22.2291 11.2857 21.6109 11.0449 21.1551 10.6162C20.6993 10.1876 20.4432 9.60621 20.4432 9C20.4432 8.39379 20.6993 7.81241 21.1551 7.38376C21.6109 6.9551 22.2291 6.71429 22.8736 6.71429V3.28571C22.8736 2.67951 22.6176 2.09812 22.1618 1.66947C21.706 1.24082 21.0878 1 20.4432 1H3.4304Z" stroke="#999999" stroke-width="2" stroke-linecap="round" stroke-linejoin="round"/>
</svg>
