<svg width="19" height="19" viewBox="0 0 19 19" fill="none" xmlns="http://www.w3.org/2000/svg">
<path d="M8.94922 18.8389H10.5664C11.0234 18.8389 11.3574 18.5664 11.4541 18.1182L11.9111 16.1846C12.2539 16.0703 12.5879 15.9385 12.8779 15.7979L14.5742 16.835C14.9521 17.0723 15.3828 17.0371 15.6992 16.7207L16.833 15.5957C17.1494 15.2793 17.1934 14.8223 16.9385 14.4443L15.9014 12.7656C16.0508 12.458 16.1826 12.1416 16.2793 11.8252L18.2305 11.3594C18.6787 11.2627 18.9424 10.9287 18.9424 10.4717V8.88086C18.9424 8.43262 18.6787 8.09863 18.2305 8.00195L16.2969 7.53613C16.1826 7.17578 16.042 6.85059 15.9189 6.57812L16.9561 4.87305C17.2021 4.49512 17.1758 4.06445 16.8506 3.74805L15.6992 2.61426C15.374 2.31543 14.9873 2.2627 14.6006 2.48242L12.8779 3.5459C12.5967 3.39648 12.2715 3.26465 11.9111 3.15039L11.4541 1.19043C11.3574 0.742188 11.0234 0.469727 10.5664 0.469727H8.94922C8.49219 0.469727 8.1582 0.742188 8.05273 1.19043L7.5957 3.13281C7.25293 3.24707 6.91895 3.37891 6.62012 3.53711L4.91504 2.48242C4.52832 2.2627 4.13281 2.30664 3.80762 2.61426L2.66504 3.74805C2.33984 4.06445 2.30469 4.49512 2.55957 4.87305L3.58789 6.57812C3.47363 6.85059 3.33301 7.17578 3.21875 7.53613L1.28516 8.00195C0.836914 8.09863 0.573242 8.43262 0.573242 8.88086V10.4717C0.573242 10.9287 0.836914 11.2627 1.28516 11.3594L3.23633 11.8252C3.33301 12.1416 3.46484 12.458 3.60547 12.7656L2.57715 14.4443C2.31348 14.8223 2.36621 15.2793 2.68262 15.5957L3.80762 16.7207C4.12402 17.0371 4.56348 17.0723 4.94141 16.835L6.62891 15.7979C6.92773 15.9385 7.25293 16.0703 7.5957 16.1846L8.05273 18.1182C8.1582 18.5664 8.49219 18.8389 8.94922 18.8389ZM9.75781 12.7568C8.05273 12.7568 6.65527 11.3506 6.65527 9.64551C6.65527 7.94922 8.05273 6.55176 9.75781 6.55176C11.4629 6.55176 12.8604 7.94922 12.8604 9.64551C12.8604 11.3506 11.4629 12.7568 9.75781 12.7568Z" fill="#0D70B2"/>
</svg>
