<svg width="20" height="19" viewBox="0 0 20 19" fill="none" xmlns="http://www.w3.org/2000/svg">
<path fill-rule="evenodd" clip-rule="evenodd" d="M9.69345 14.3616C7.98108 14.3616 6.24139 13.3451 5.22608 11.9996C0.354952 11.9996 0.207703 18.9584 0.207703 18.9584H19.178C19.178 18.9584 19.5604 11.9688 14.0825 11.9688C13.0683 13.3308 11.4058 14.3616 9.69345 14.3616Z" fill="#0D70B2"/>
<path fill-rule="evenodd" clip-rule="evenodd" d="M13.7737 6.01948C13.7737 8.02161 11.9461 11.8501 9.6899 11.8501C7.43721 11.8501 5.60846 8.02042 5.60846 6.01948C5.60846 4.01854 7.43602 2.39404 9.6899 2.39404C11.9461 2.39523 13.7737 4.01973 13.7737 6.01948Z" fill="#0D70B2"/>
<path fill-rule="evenodd" clip-rule="evenodd" d="M15.5953 4.29162C15.5953 3.91637 15.0728 3.61356 14.4245 3.61119V2.83812C14.4245 2.72294 14.4684 0.026123 9.70416 0.026123C4.94228 0.026123 4.98622 2.72294 4.98622 2.83812V3.6385C4.97434 3.6385 4.96484 3.63494 4.95416 3.63494C4.30934 3.63494 3.79041 3.933 3.79041 4.30231V7.57268C3.79041 7.93962 4.31053 8.23887 4.95416 8.23887C5.59778 8.23887 6.12028 7.93962 6.12028 7.57268V4.30231C6.12028 4.25125 6.08822 4.20494 6.06922 4.15743V3.26562C6.06922 3.18369 5.72722 1.14831 9.70416 1.14831C13.6823 1.14831 13.269 3.18369 13.269 3.26562V4.20494C13.2619 4.23462 13.2393 4.26075 13.2393 4.29162V7.63681C13.2393 8.01325 13.7654 8.31843 14.4173 8.31843C14.4316 8.31843 14.4423 8.31368 14.4565 8.31368V9.53562H13.288V10.6875H15.6072L15.5953 4.29162Z" fill="#0D70B2"/>
</svg>
