[
    {
        "title": "1000 Checkin",
        "start": "2021-6-1",
        "end": "2021-6-1",
        "hexColor": "#3EB7A1"
    },
    {
        "title": "2000 Mission",
        "start": "2021-6-1",
        "end": "2021-6-1",
        "hexColor": "#E15E54"
    },
    {
        "title": "1000 Checkin",
        "start": "2021-6-2",
        "end": "2021-6-2",
        "hexColor": "#3EB7A1"
    },
    {
        "title": "2000 Mission",
        "start": "2021-6-2",
        "end": "2021-6-2",
        "hexColor": "#E15E54"
    },
    {
        "title": "1000 Checkin",
        "start": "2021-6-3",
        "end": "2021-6-3",
        "hexColor": "#3EB7A1"
    },
    {
        "title": "2000 Mission",
        "start": "2021-6-3",
        "end": "2021-6-3",
        "hexColor": "#E15E54"
    },
    {
        "title": "1000 Checkin",
        "start": "2021-6-4",
        "end": "2021-6-4",
        "hexColor": "#3EB7A1"
    },
    {
        "title": "2000 Mission",
        "start": "2021-6-4",
        "end": "2021-6-4",
        "hexColor": "#E15E54"
    },
    {
        "title": "1000 Checkin",
        "start": "2021-6-5",
        "end": "2021-6-5",
        "hexColor": "#3EB7A1"
    },
    {
        "title": "2000 Mission",
        "start": "2021-6-5",
        "end": "2021-6-5",
        "hexColor": "#E15E54"
    },
    {
        "title": "1000 Checkin",
        "start": "2021-6-6",
        "end": "2021-6-6",
        "hexColor": "#3EB7A1"
    },
    {
        "title": "2000 Mission",
        "start": "2021-6-6",
        "end": "2021-6-6",
        "hexColor": "#E15E54"
    },
    {
        "title": "1000 Checkin",
        "start": "2021-6-7",
        "end": "2021-6-7",
        "hexColor": "#3EB7A1"
    },
    {
        "title": "2000 Mission",
        "start": "2021-6-7",
        "end": "2021-6-7",
        "hexColor": "#E15E54"
    },
    {
        "title": "1000 Checkin",
        "start": "2021-6-8",
        "end": "2021-6-8",
        "hexColor": "#3EB7A1"
    },
    {
        "title": "2000 Mission",
        "start": "2021-6-8",
        "end": "2021-6-8",
        "hexColor": "#E15E54"
    },
    {
        "title": "1000 Checkin",
        "start": "2021-6-9",
        "end": "2021-6-9",
        "hexColor": "#3EB7A1"
    },
    {
        "title": "2000 Mission",
        "start": "2021-6-9",
        "end": "2021-6-9",
        "hexColor": "#E15E54"
    },
    {
        "title": "1000 Checkin",
        "start": "2021-6-10",
        "end": "2021-6-10",
        "hexColor": "#3EB7A1"
    },
    {
        "title": "2000 Mission",
        "start": "2021-6-10",
        "end": "2021-6-10",
        "hexColor": "#E15E54"
    },
    {
        "title": "1000 Checkin",
        "start": "2021-6-11",
        "end": "2021-6-11",
        "hexColor": "#3EB7A1"
    },
    {
        "title": "2000 Mission",
        "start": "2021-6-11",
        "end": "2021-6-11",
        "hexColor": "#E15E54"
    },
    {
        "title": "1000 Checkin",
        "start": "2021-6-12",
        "end": "2021-6-12",
        "hexColor": "#3EB7A1"
    },
    {
        "title": "2000 Mission",
        "start": "2021-6-12",
        "end": "2021-6-12",
        "hexColor": "#E15E54"
    },
    {
        "title": "1000 Checkin",
        "start": "2021-6-13",
        "end": "2021-6-13",
        "hexColor": "#3EB7A1"
    },
    {
        "title": "2000 Mission",
        "start": "2021-6-13",
        "end": "2021-6-13",
        "hexColor": "#E15E54"
    },
    {
        "title": "1000 Checkin",
        "start": "2021-6-14",
        "end": "2021-6-14",
        "hexColor": "#3EB7A1"
    },
    {
        "title": "2000 Mission",
        "start": "2021-6-14",
        "end": "2021-6-14",
        "hexColor": "#E15E54"
    },
    {
        "title": "1000 Checkin",
        "start": "2021-6-15",
        "end": "2021-6-15",
        "hexColor": "#3EB7A1"
    },
    {
        "title": "2000 Mission",
        "start": "2021-6-15",
        "end": "2021-6-15",
        "hexColor": "#E15E54"
    },
    {
        "title": "1000 Checkin",
        "start": "2021-6-16",
        "end": "2021-6-16",
        "hexColor": "#3EB7A1"
    },
    {
        "title": "2000 Mission",
        "start": "2021-6-16",
        "end": "2021-6-16",
        "hexColor": "#E15E54"
    },
    {
        "title": "1000 Checkin",
        "start": "2021-6-17",
        "end": "2021-6-17",
        "hexColor": "#3EB7A1"
    },
    {
        "title": "2000 Mission",
        "start": "2021-6-17",
        "end": "2021-6-17",
        "hexColor": "#E15E54"
    },
    {
        "title": "1000 Checkin",
        "start": "2021-6-18",
        "end": "2021-6-18",
        "hexColor": "#3EB7A1"
    },
    {
        "title": "2000 Mission",
        "start": "2021-6-18",
        "end": "2021-6-18",
        "hexColor": "#E15E54"
    },
    {
        "title": "1000 Checkin",
        "start": "2021-6-19",
        "end": "2021-6-19",
        "hexColor": "#3EB7A1"
    },
    {
        "title": "2000 Mission",
        "start": "2021-6-19",
        "end": "2021-6-19",
        "hexColor": "#E15E54"
    },
    {
        "title": "1000 Checkin",
        "start": "2021-6-20",
        "end": "2021-6-20",
        "hexColor": "#3EB7A1"
    },
    {
        "title": "2000 Mission",
        "start": "2021-6-20",
        "end": "2021-6-20",
        "hexColor": "#E15E54"
    },
    {
        "title": "1000 Checkin",
        "start": "2021-6-21",
        "end": "2021-6-21",
        "hexColor": "#3EB7A1"
    },
    {
        "title": "2000 Mission",
        "start": "2021-6-21",
        "end": "2021-6-21",
        "hexColor": "#E15E54"
    },
    {
        "title": "1000 Checkin",
        "start": "2021-6-22",
        "end": "2021-6-22",
        "hexColor": "#3EB7A1"
    },
    {
        "title": "2000 Mission",
        "start": "2021-6-22",
        "end": "2021-6-22",
        "hexColor": "#E15E54"
    },
    {
        "title": "1000 Checkin",
        "start": "2021-6-23",
        "end": "2021-6-23",
        "hexColor": "#3EB7A1"
    },
    {
        "title": "2000 Mission",
        "start": "2021-6-23",
        "end": "2021-6-23",
        "hexColor": "#E15E54"
    },
    {
        "title": "1000 Checkin",
        "start": "2021-6-24",
        "end": "2021-6-24",
        "hexColor": "#3EB7A1"
    },
    {
        "title": "2000 Mission",
        "start": "2021-6-24",
        "end": "2021-6-24",
        "hexColor": "#E15E54"
    },
    {
        "title": "1000 Checkin",
        "start": "2021-6-25",
        "end": "2021-6-25",
        "hexColor": "#3EB7A1"
    },
    {
        "title": "2000 Mission",
        "start": "2021-6-25",
        "end": "2021-6-25",
        "hexColor": "#E15E54"
    },
    {
        "title": "1000 Checkin",
        "start": "2021-6-26",
        "end": "2021-6-26",
        "hexColor": "#3EB7A1"
    },
    {
        "title": "2000 Mission",
        "start": "2021-6-26",
        "end": "2021-6-26",
        "hexColor": "#E15E54"
    },
    {
        "title": "1000 Checkin",
        "start": "2021-6-27",
        "end": "2021-6-27",
        "hexColor": "#3EB7A1"
    },
    {
        "title": "2000 Mission",
        "start": "2021-6-27",
        "end": "2021-6-27",
        "hexColor": "#E15E54"
    },
    {
        "title": "1000 Checkin",
        "start": "2021-6-28",
        "end": "2021-6-28",
        "hexColor": "#3EB7A1"
    },
    {
        "title": "2000 Mission",
        "start": "2021-6-28",
        "end": "2021-6-28",
        "hexColor": "#E15E54"
    },
    {
        "title": "1000 Checkin",
        "start": "2021-6-29",
        "end": "2021-6-29",
        "hexColor": "#3EB7A1"
    },
    {
        "title": "2000 Mission",
        "start": "2021-6-29",
        "end": "2021-6-29",
        "hexColor": "#E15E54"
    },
    {
        "title": "1000 Checkin",
        "start": "2021-6-30",
        "end": "2021-6-30",
        "hexColor": "#3EB7A1"
    },
    {
        "title": "2000 Mission",
        "start": "2021-6-30",
        "end": "2021-6-30",
        "hexColor": "#E15E54"
    }
]